…
    #> # A tibble: 38 × 8
    #> # Groups:   variable [4]
    #>    variable term        begin   end     estimate std.error statistic  p.value
    #>    <chr>    <chr>       <chr>   <chr>      <dbl>     <dbl>     <dbl>    <dbl>
    #>  1 e        (Intercept) 1980(1) 1982(4) 931.       1.04      896.    7.41e-26
    #>  2 e        trend       1980(1) 1982(4)  -0.0383   0.141      -0.271 7.92e- 1
    #>  3 e        (Intercept) 1983(1) 1989(3) 920.       0.262    3518.    1.04e-72
    #>  4 e        trend       1983(1) 1989(3)   0.708    0.00964    73.4   1.00e-30
    #>  5 e        (Intercept) 1989(4) 1992(3) 960.       1.55      618.    3.05e-24
    #>  6 e        trend       1989(4) 1992(3)  -0.294    0.0341     -8.62  6.09e- 6
    #>  7 e        (Intercept) 1992(4) 1996(2) 923.       1.43      643.    1.16e-30
    #>  8 e        trend       1992(4) 1996(2)   0.427    0.0242     17.6   1.89e-10
    #>  9 e        (Intercept) 1996(3) 2000(4) 906.       0.671    1351.    6.86e-42
    #> 10 e        trend       1996(3) 2000(4)   0.669    0.00886    75.5   7.44e-22
    #> # … with 28 more rows
…
